solid OpenSCAD_Model
  facet normal 0 0 1
    outer loop
      vertex 22.05 55 1
      vertex 15 25 1
      vertex 22.05 -53 1
    endloop
  endfacet
  facet normal 0 0 1
    outer loop
      vertex 22.05 55 1
      vertex -15 25 1
      vertex 15 25 1
    endloop
  endfacet
  facet normal 0 0 1
    outer loop
      vertex -22.45 -53 1
      vertex -15 25 1
      vertex -22.45 55 1
    endloop
  endfacet
  facet normal -0 0 1
    outer loop
      vertex -22.45 55 1
      vertex -15 25 1
      vertex 22.05 55 1
    endloop
  endfacet
  facet normal -0 0 1
    outer loop
      vertex 15 -25 1
      vertex 22.05 -53 1
      vertex 15 25 1
    endloop
  endfacet
  facet normal -0 0 1
    outer loop
      vertex -15 -25 1
      vertex 22.05 -53 1
      vertex 15 -25 1
    endloop
  endfacet
  facet normal 0 0 1
    outer loop
      vertex -15 -25 1
      vertex -22.45 -53 1
      vertex 22.05 -53 1
    endloop
  endfacet
  facet normal 0 0 1
    outer loop
      vertex -15 25 1
      vertex -22.45 -53 1
      vertex -15 -25 1
    endloop
  endfacet
  facet normal 0 -0.894427 0.447214
    outer loop
      vertex -23.45 -54 -1
      vertex 22.05 -53 1
      vertex -22.45 -53 1
    endloop
  endfacet
  facet normal 0 -0.894427 0.447214
    outer loop
      vertex 22.05 -53 1
      vertex -23.45 -54 -1
      vertex 23.05 -54 -1
    endloop
  endfacet
  facet normal 0 0 -1
    outer loop
      vertex 23.05 -54 -1
      vertex 15 -25 -1
      vertex 23.05 55 -1
    endloop
  endfacet
  facet normal 0 0 -1
    outer loop
      vertex 23.05 -54 -1
      vertex -15 -25 -1
      vertex 15 -25 -1
    endloop
  endfacet
  facet normal -0 0 -1
    outer loop
      vertex -15 -25 -1
      vertex -23.45 -54 -1
      vertex -15 25 -1
    endloop
  endfacet
  facet normal 0 0 -1
    outer loop
      vertex -23.45 -54 -1
      vertex -15 -25 -1
      vertex 23.05 -54 -1
    endloop
  endfacet
  facet normal 0 0 -1
    outer loop
      vertex 15 25 -1
      vertex 23.05 55 -1
      vertex 15 -25 -1
    endloop
  endfacet
  facet normal 0 0 -1
    outer loop
      vertex -15 25 -1
      vertex 23.05 55 -1
      vertex 15 25 -1
    endloop
  endfacet
  facet normal 0 0 -1
    outer loop
      vertex -15 25 -1
      vertex -23.45 55 -1
      vertex 23.05 55 -1
    endloop
  endfacet
  facet normal 0 0 -1
    outer loop
      vertex -23.45 55 -1
      vertex -15 25 -1
      vertex -23.45 -54 -1
    endloop
  endfacet
  facet normal 0 1 0
    outer loop
      vertex 23.05 55 -1
      vertex -22.45 55 1
      vertex 22.05 55 1
    endloop
  endfacet
  facet normal 0 1 0
    outer loop
      vertex -22.45 55 1
      vertex 23.05 55 -1
      vertex -23.45 55 -1
    endloop
  endfacet
  facet normal 0.894427 -0 0.447214
    outer loop
      vertex 22.05 -53 1
      vertex 23.05 55 -1
      vertex 22.05 55 1
    endloop
  endfacet
  facet normal 0.894427 0 0.447214
    outer loop
      vertex 23.05 55 -1
      vertex 22.05 -53 1
      vertex 23.05 -54 -1
    endloop
  endfacet
  facet normal -0.894427 0 0.447214
    outer loop
      vertex -23.45 55 -1
      vertex -22.45 -53 1
      vertex -22.45 55 1
    endloop
  endfacet
  facet normal -0.894427 0 0.447214
    outer loop
      vertex -22.45 -53 1
      vertex -23.45 55 -1
      vertex -23.45 -54 -1
    endloop
  endfacet
  facet normal 1 -0 0
    outer loop
      vertex -15 -25 1
      vertex -15 25 -1
      vertex -15 25 1
    endloop
  endfacet
  facet normal 1 0 0
    outer loop
      vertex -15 25 -1
      vertex -15 -25 1
      vertex -15 -25 -1
    endloop
  endfacet
  facet normal -1 0 0
    outer loop
      vertex 15 -25 -1
      vertex 15 25 1
      vertex 15 25 -1
    endloop
  endfacet
  facet normal -1 -0 0
    outer loop
      vertex 15 25 1
      vertex 15 -25 -1
      vertex 15 -25 1
    endloop
  endfacet
  facet normal 0 -1 0
    outer loop
      vertex -15 25 -1
      vertex 15 25 1
      vertex -15 25 1
    endloop
  endfacet
  facet normal 0 -1 -0
    outer loop
      vertex 15 25 1
      vertex -15 25 -1
      vertex 15 25 -1
    endloop
  endfacet
  facet normal 0 1 -0
    outer loop
      vertex 15 -25 -1
      vertex -15 -25 1
      vertex 15 -25 1
    endloop
  endfacet
  facet normal 0 1 0
    outer loop
      vertex -15 -25 1
      vertex 15 -25 -1
      vertex -15 -25 -1
    endloop
  endfacet
endsolid OpenSCAD_Model
